{
    "defaultListTasks": [
        {
            "task": "Play soccer",
            "date": "2021-12-17",
            "time": "11:58",
            "completed": false,
            "edit": false
        },
        {
            "task": "Go back home",
            "date": "2021-11-23",
            "time": "11:58",
            "completed": false,
            "edit": false
        },
        {
            "task": "Learn Javascript",
            "date": "2021-11-14",
            "time": "11:58",
            "completed": false,
            "edit": false
        },
        {
            "task": "Buy something",
            "date": "2021-12-25",
            "time": "11:58",
            "completed": false,
            "edit": false
        },
        {
            "task": "Do something with ReactJS",
            "date": "2021-12-26",
            "time": "11:58",
            "completed": false,
            "edit": false
        },
        {
            "task": "Do something with JavaScript",
            "date": "2021-11-24",
            "time": "11:58",
            "completed": false,
            "edit": false
        }
    ]
}